The {healthyverse}
…
healthyR

Current Stats

Has some functionality that can be useful right out of the gate

Plotting functions like los_ra_index_plt(), kmeans_scree_plt(), and gartner_magic_chart_plt()

LOS RA Index Plot

This plot takes place at the end of a work flow. Lets take a look at an example. First we need some data.

## # A tibble: 186 x 4
##     alos  elos readmit_rate readmit_rate_bench
##    <dbl> <dbl>        <dbl>              <dbl>
##  1  4.82  9.33       0.0768             0.0651
##  2  5.81  6.25       0.141              0.0435
##  3 11.2   8.26       0.126              0.0333
##  4  6.71  4.50       0.0705             0.104 
##  5  6.89  6.64       0.0502             0.0206
##  6 11.6   5.03       0.107              0.149 
##  7  7.88  6.28       0.0993             0.0157
##  8  2.70  3.31       0.0105             0.0801
##  9  4.44  2.07       0.102              0.102 
## 10  5.16 12.0        0.110              0.104 
## # ... with 176 more rows
…
